Lab #2: Making an R Package
…
## experiment with function 2 using 'mean'
payment_calculate(data = sample_data, statistics = 'mean') ## calculate mean of average Medicare payments by DRG code

## # A tibble: 100 x 2
##    drg_code   mean
##    <chr>     <dbl>
##  1 039       5556.
##  2 057       5702.
##  3 064      12113.
##  4 065       6782.
##  5 066       4469.
##  6 069       3952.
##  7 074       5239.
##  8 101       4453.
##  9 149       3441.
## 10 176       6078.
## # ... with 90 more rows

## experiment with function 2 using 'median'
payment_calculate(data = sample_data, statistics = 'median') ## calculate median of average Medicare payments by DRG code

## # A tibble: 100 x 2
##    drg_code median
##    <chr>     <dbl>
##  1 039       5269.
##  2 057       5105.
##  3 064      10956.
##  4 065       6168.
##  5 066       4080.
##  6 069       3627.
##  7 074       4816.
##  8 101       4013.
##  9 149       3146.
## 10 176       5645.
## # ... with 90 more rows

## experiment with function 2 using 'standard deviation'
payment_calculate(data = sample_data, statistics = 'standard deviation') ## calculate standard deviation of average Medicare payments by DRG code

## # A tibble: 100 x 2
##    drg_code standard_deviation
##    <chr>                 <dbl>
##  1 039                   1236.
##  2 057                   1974.
##  3 064                   3702.
##  4 065                   1979.
##  5 066                   1272.
##  6 069                   1095.
##  7 074                   1542.
##  8 101                   1379.
##  9 149                   1076.
## 10 176                   1505.
## # ... with 90 more rows
…
